3000
447948102
597956207
1494643853
1793792519
1913937452
1454070197
980853279
1353919930
1533172955
823107004
1018228181
469722075
1298427864
512082398
983954076
156856945
395033117
750760658
1866680057
115410077
257181732
476999338
516152097
739473325
1768490288
1694313823
1881752425
1727948646
950271433
119476029
1113624984
1206213106
1699355575
1788163312
572688419
225169874
604663561
680919932
502387620
773727467
1049033287
792285190
774058672
661058731
872122576
227669641
337565398
1827297690
1256693036
1254949462
310355268
1879414522
1100507270
897045548
1779036907
516363698
1356705512
581886283
605271795
1179382646
55935756
1681093934
110559598
592524714
207569304
184829781
977175115
270396989
558403567
1181878673
475283266
1228093167
977529777
440353225
421741398
1084936556
750309505
1574431307
247976776
980883773
1141413137
1940042278
304111324
1389171902
1645146540
451567010
290758987
295857419
1928631821
716702691
1193055411
66070608
1400156383
1622715211
1876022313
834233798
1201730701
1812724636
1811812300
920916685
1723382577
1869496828
1089925638
234844389
46825326
1003072566
35561269
383006317
1174134021
1110780980
925699236
1652068299
1324397250
1467344041
871536439
1437739795
1218606037
153518939
1061457696
1835699243
71790322
1117973914
461604122
1257671736
949821900
1318054261
539295766
1627102221
731932660
718627925
308951212
1824549425
1111943252
1713731393
949646601
1893497061
31926800
1822175327
1473446325
287628942
571985740
1916639334
1023006108
159713443
772986621
368169723
487571869
1138639723
1188852710
272623799
1094734780
685526729
1965438728
132991224
268179236
905818199
1161345673
156421423
1875271731
196433348
1706453912
1193577905
1107626530
1285578956
411442636
397709770
226181866
27106189
393369821
1794316366
1521463602
565094241
224584171
592782337
1223160986
777485795
844332130
461381870
1248746083
1743340919
1470607163
1746011700
725030579
888032886
827451308
1656744263
1452725868
332485964
61111010
47004396
744452924
447634543
1559281874
685243078
557264297
971247273
1952239988
680876806
1001230244
1289702505
1828685205
195998498
977032478
1256686997
797621000
1230247036
464148123
1478397837
1640451586
1656707398
581010659
159527313
83926557
683333264
1059278625
548684868
1182622775
919675787
221830101
19511882
1586373021
388980152
1989380322
1673565964
1914090845
369971295
260498642
740081541
1693145665
661295484
286279801
8053696
666131552
1904043638
350198097
1734388224
62590574
718124203
324419194
1879762676
1168092951
1752685568
63818400
330419767
1630419266
120470531
968267637
578520527
1921648757
1786187712
1323326563
802784418
1351744552
1294567565
1790944970
31373063
1099304785
247161747
35508256
1287598456
264329658
1997599788
1449374825
724639856
880953071
840445031
1601285022
1514877543
60133159
793926858
823547404
1979122750
675648648
1769354731
132453693
436533013
1996376677
1731997937
1167074593
1617718806
705479344
1335302802
284708568
162831489
679577764
473581423
1834805317
1725439567
615447730
1319834863
440194413
1736500636
870143534
609915161
1633291896
805556197
817231208
1894709130
1364881885
1892861409
1765266638
533462933
1656518265
1884903363
200367400
951402330
739655402
901257714
1168631276
95137477
551507101
212254874
1367650985
777531207
602470657
1387042693
495526057
564565567
1988411950
777533845
1146673812
335723416
612342246
1518934272
1794765348
517601812
1029228157
1938675964
1138677587
561725226
1982615841
1048523165
396722304
792009577
1929329351
1636579381
1920144626
420701285
967493376
806942575
676395452
1940062681
62587365
435019267
460167419
1783471159
59963278
1652275139
746161849
18556367
636672909
1567130839
1498992260
1799454919
1514171710
170181033
1533652361
1684605426
27746259
107767015
1095324177
863904781
1984769554
1363102838
258950762
1923510616
1079824344
1607831210
1115549402
1546092241
286909833
921692053
1543018757
694456568
1178317172
1789014218
932552467
750446723
1698329171
1576100412
1492437336
121316454
375852139
180567571
1913810414
380768115
1794430906
429917571
132914231
781049109
1703799616
556591432
297776847
1907763165
1098605944
447538704
359056387
623750840
1192996619
947090164
1488367473
1132581604
238521587
657627935
530925633
316701207
400610414
292845427
1064055268
1547869066
1888490510
939373474
600223433
974786739
179804441
1564821266
630309069
1909745226
817026009
304727761
950861205
551488315
1168660334
785407102
412658301
761486076
378963704
1473553513
1593736585
700920021
1227157468
1892598461
1094898478
458251401
900653287
1429366869
49328481
1890342865
523913950
1297766092
236244318
86700249
958919308
655424433
1423931026
1750067969
1139532223
1253835789
489710662
1343911276
960854847
618733463
1434932048
1196295158
1002817648
497886410
139337518
777246265
1351418803
1807995045
700009134
1501604088
1796572613
1430022580
1944220378
948169040
1882774547
1200627459
1518816132
1488472551
1108084198
1655464857
1959372060
994187970
179197543
687657705
341781389
214083120
1451682772
909747729
1080732543
1886287197
182333435
1458864875
288338957
907677941
137214392
1495887234
1117309423
1314773574
1549506195
741115239
1580177218
820339372
1043616154
1159056866
438393712
1852297045
1864501641
670563613
860083757
498600147
929705067
855574660
568518539
672214469
606360074
1589411705
1268081459
491564650
1687636021
1255297205
935307454
99311334
1507612168
240285872
1920216475
641718564
55024783
1895858786
414015956
1475117943
701916139
1786168667
1430002727
503568820
858834180
1645463873
1637554941
1985970581
1358419097
1085672157
1085229476
1601154331
1939167578
271281738
717909022
978184598
1891689717
314743429
115602722
1435715073
1137696119
1851849377
1615181117
691706526
1321314899
1579158800
1970068713
197838347
1482888315
417892771
1318226820
1619935021
1996866523
1072086345
1488623213
1330930931
1104554762
239499336
211176151
1392604182
149148124
41370563
234622558
440850579
1518236817
1298205180
44425640
111283935
855959497
677446342
1823148415
841784879
1753431810
1952034936
325541393
660347574
1211212548
337794316
396935527
1224822689
497018515
1247037390
465279573
1988458557
1777560439
1479960872
697338838
954640686
1093391
1250279809
455215883
254362973
376546724
1831591832
479246185
419157305
1535994103
1088026195
1606124786
1862342781
73729869
1642353567
112363414
590078153
1283065964
1263743251
1903994759
1641346701
1543533449
1905409512
713180270
988194199
882446894
87012229
1681005324
1477188803
1909709054
1483389792
1772270503
1950571269
436038667
935716086
959884558
1641295190
235254288
1176808230
669924179
119348868
432108327
218239754
474605460
960161880
1041841761
168306521
374654248
1196852952
331661073
261134214
1006880481
397706231
70690541
82821849
566715796
55651110
1296146872
961125642
1801671759
1736880149
1010663301
1034718736
1430258631
1028256828
1744578808
314253083
643972153
1644734399
1567458418
1880592909
1719553170
1373129092
524276081
1195954580
1770672912
147990843
811666275
448775421
1598427100
1566314480
759151107
1747042013
1735334061
1556314502
1370716277
838455948
1157121775
1600976653
1971224829
1550287307
1481285292
48258567
495429623
975593666
446909295
316924864
450189759
1170063428
1781468125
1800984331
1479844576
336744040
1763710051
964995352
1994862283
1001612959
1380791562
208212183
104230423
414913022
1461226327
941607143
1901726598
1868588973
1295842523
377028237
1435330113
924485802
38086308
702035665
762948930
1396232352
854087991
726101363
221649468
636768580
725315705
1092975195
370467308
1260504767
1940886821
323098082
1491803010
1231786051
695907162
1890971993
690588378
466168210
1834291241
454961164
1150103531
464406563
658045885
1629910341
567189161
1759291936
143286461
1046916468
966773620
772078167
1364394651
147251196
756589899
25922928
1374768567
602368837
837979332
1821892288
1094234807
1465741829
741177059
734723144
1846927608
595737505
1864770673
788160519
1429943505
613586936
1014209142
1076449318
1760324136
1836618395
1545365896
167918276
1191977725
1691730683
1527424185
858234311
1370452814
1150907165
1090145944
257748523
1375763948
1851827115
1643828824
1483516856
1755762197
1225408639
295151842
1404885609
487097675
1983692467
1463602451
26160815
1411517176
832054080
761419722
1464422251
67840632
1319216810
1688197977
356298066
1493920182
577576502
1911521538
1377651390
132244056
182638292
1743459663
1987396089
1560209559
592031497
1418985552
1570479915
591426922
311513865
114567937
1605963443
1408612761
1586614857
1084700761
975221997
1222196885
239781224
1329954208
1377779432
1214513295
1867205172
1463472412
1770788017
942465689
1531133149
1942643097
1821140256
1222205634
290544955
692733316
839708215
1745701639
1294410538
1902684795
710492216
951988459
173626106
1574759345
1216758140
1377696103
110087032
791339187
1248864305
652715640
1354259502
786470655
429457909
460672356
1417468511
476768319
1789407021
167460920
1759299432
1247190064
1265938403
1751561476
249699421
705153629
1686512148
1748281143
1479912844
1106354169
358925054
1334615647
499587671
389356504
357287080
1893311047
1321761156
753644030
163676197
533630646
1687091595
806289392
1779039294
1773212273
404954941
826452397
1241177545
1259814591
1765016116
1764340031
1341100827
556479779
1604737322
1986438506
609002256
250979871
1136055666
523356758
987788480
145680266
1751740631
1749822649
140839457
998336976
889572625
1040651696
34895910
1038524538
951398902
1732597294
1717134764
1857505631
1031510446
1351821565
282356272
1243493441
1683150181
644063525
1664366049
505569487
84060801
1395515980
1121894573
1001886593
1773411697
1552616535
1904913092
209193493
1433134991
1057112549
1097748413
542928408
412097289
175741253
494363324
864276082
706224586
1041143865
559734530
1668312347
1590232699
499147485
156271505
66030556
1402067911
1618780795
1632025246
1475043048
1003650873
515266966
1104215351
780445685
500593640
417227157
635667908
1447174649
916569057
65091275
836108134
686807768
664806813
1117926823
822157489
810504339
663825259
1506359955
1525270959
802438537
1538038858
1110384519
1935456207
616488163
1413945112
839237723
1730295320
1814059765
815702576
112426052
1331083921
1765743969
1544895436
101984064
1076186338
285658983
1725842992
956770101
1291821102
1454032629
1116590233
253127362
771772953
1452033727
853762602
1318138395
90307334
1228215793
1848240407
15347486
967113429
1942015969
420469162
719074215
412347981
1428436087
698431627
1522412693
1412807104
726468565
931505577
293323398
1815497953
378238938
911176249
1022691808
1361080104
1305539301
418933084
1782016410
1909080196
713983339
1096005444
28783650
1704770825
599873750
1837153902
1738345045
760589943
750088465
976745703
1603646694
894164650
40932729
136227464
1912678181
863516048
1925792290
1909836025
675220869
1177346524
1296016188
1614759738
687332694
636018638
705977602
657916800
1804233038
453751634
1889486861
876371916
84247357
1173414354
1875640977
20767500
182328614
363952386
1131529314
852259565
1632852858
923254742
1451845666
1217350416
53137047
620911092
122219270
1237104087
474410040
976178223
349792336
1053405963
1902880962
1510372753
1276392814
642721294
1994895731
1180661696
994122217
1174695198
532569752
1813110902
347183674
1322035759
1105551892
1300689945
1645657627
492438798
1844089372
1803273283
340123373
1852209423
1688848944
770489284
1046150283
536660375
1446061067
165425884
1235211440
86382055
1341037601
450782506
1426260820
422905414
1378694569
944108381
888074004
1892883135
879719293
223603335
1062514949
1726953368
433597633
349693915
3029825
1962746528
323742135
515671564
208575523
1762086225
1694472579
702376185
1131131154
732573818
1040120612
318459190
171933804
292622431
182936056
1447655135
265323016
618072020
1004269831
701154062
1228417444
545021049
1772445137
858201021
1061343289
1872248623
168705248
543894420
1258814043
902418871
1938858434
1723408499
1199585486
463229077
1580014561
217943306
1898293509
984143576
1665007799
1627305
1727320324
1682789779
1049718720
1183351945
1869420080
317491927
328989050
514613146
1319526173
439548234
1963063266
1565152133
1833186090
1771808249
245481424
931839992
229555279
1418877603
490351339
33091541
682662445
340156851
708153984
1184934905
1059714689
1733661636
252897784
37653357
542607720
1243410585
147592935
215947430
174113358
1686871482
1271638001
941086188
753950583
71682051
968975472
1386320559
1566820436
1939176681
1659372630
487245124
1345028657
935883059
1659789195
1768484398
115947079
373488187
101182393
1586396309
1331453207
651755915
1630078376
376071361
1269894858
874340336
490800285
556928050
1611889154
462742722
1876056860
1958419548
522604502
1180597662
1384324653
77390533
1538815095
1623705372
17866433
1527915450
1856505033
59300274
1401505051
662353413
1269033809
1059812763
1654187310
977218425
1658154762
612161085
307207864
988492569
980841891
1433212333
1644575444
74848842
1085111161
637518222
516492276
679283791
1462560316
923443604
849454188
1851842858
1960014650
1035137010
1126034644
1051545763
1268682605
1984659969
39301538
1343573721
542075047
1293119400
1814673377
40900480
1902281763
49455759
516453139
90018256
871129237
1025303572
1459369926
83879331
48657001
381180603
753505496
1535023648
1093269813
186093377
228370143
1832767476
910276349
1679859176
1124907192
1406730891
7497782
1469007390
404028892
1689418815
1798226236
1861880070
1661222138
1427402553
679589683
795278804
619873625
1768265338
767875483
1076385323
73882986
866764811
206949954
72789125
1926229757
1245517666
1823868349
1581373101
77777648
1194587079
113054498
857567392
716408049
1311035378
1886790940
53099280
1408972885
550182183
829118637
360124084
1857130983
251367254
659248749
1802719052
670484026
594428658
1044083190
1969564729
513253912
438792991
1543873039
1136252004
1496885562
1521936176
32828017
960080290
1834150247
374690402
1223870913
1513271551
478895115
635702931
1246140387
1852656694
333312878
1426489150
469910647
1622361115
811963065
1061871742
912407552
1400431221
1140079301
870841419
535863970
1310296213
1592883622
576099946
621502796
1154378669
290892412
878248714
1098586299
1959070133
781683425
1336023166
196482078
7393725
226772981
104166456
1707093649
1625689300
1037615047
1057233570
1226883823
807227684
342436337
871452329
713005114
298342660
821758957
1776390032
850953951
585536086
664587820
1440537749
1974781194
1887109347
935340785
1355860424
1676537750
1657705370
587177578
247900111
1313053365
467640234
386326350
153793760
925631403
1932801243
115907158
1863364640
1730829964
514773698
1626597315
1808161755
304533887
376133544
1682775010
869713793
748226589
1525912533
1619621070
1913871368
229767093
1537264337
1003943731
522949698
1096350741
519062117
1764680743
789734227
900885694
78856596
1740165175
1536553142
1624699820
1977827416
549768762
1306047774
129980302
1391843668
622431580
376899320
869244153
1220312326
806579465
1405561436
161142083
1151157399
53085709
1389367693
866737684
656435577
1123120111
1429763348
405110914
413052009
369404359
834466959
1943492480
114136631
912751852
1853552160
34117148
1473682722
1725441765
1408615609
325326709
345121122
1479708928
22917854
1840589794
1135738789
1187229330
561002404
579831691
86400913
1304474935
872843024
1066050962
909834999
426630418
1409641800
1314725789
1243111413
267495338
194510081
1447149205
1335800608
102949373
669574264
203978073
1515573891
419996910
513222454
736805603
1120562331
1032309267
183497702
852213436
1009312310
1474417993
487986996
533887182
293350191
1928894255
1299210268
156925981
1230478090
1910690598
1436455615
374865685
1288848409
78909746
393929515
1859986647
1639859585
501042957
262472606
1637171509
1428398913
458601010
1020881693
322971751
459527522
423494276
1452562734
1337100328
1766911145
196907467
550497988
10668988
541466634
1030741209
330479747
1945651107
1554934656
743020792
1557357219
1639181164
1677825820
1767387051
1818649718
107376399
154422205
188649271
1236091588
995610992
600240939
477204178
848060340
1410994533
779398217
1713895759
1361750858
1276722143
1554649211
1357657114
1791866929
1236819907
705446201
688192654
1894898037
264648604
1934833558
1519404087
35883553
43062745
1894118982
1718291819
1742995096
512211168
1655562367
1405287653
224202752
934449934
1480845260
184707648
17353340
1377282139
833066499
383482415
509286575
177026064
1770332945
234704206
942445303
640766927
749043937
1546766736
534640713
1183909022
15871751
131578734
37234941
1885906477
51174842
933967801
235221290
637096077
964275338
525689905
1038769294
1158938805
1937334066
352432377
456746867
773290834
1953737583
1250112822
540363642
911478564
755008052
526365999
329622187
1573972446
1304254364
1193964060
849594266
635023968
1223666677
147134617
1474526351
607231243
1758439385
1052155132
147948007
466395207
56242980
437237570
1661305534
1474126895
204336666
20045276
1104209760
1479763323
704636005
49968567
897035708
235164490
378603549
226913435
189090190
1749944967
1923652430
68102001
1611795632
458988447
1615249304
1677862701
959432059
304808888
277926933
896558315
771423805
1829215411
1696500069
785382349
331360204
1320818798
1416529132
54210697
1037416064
356538149
1188486519
771957620
878176272
1100409446
1452897247
661544704
683809051
1962933029
1196038424
101938853
1800348521
1820945261
768218987
221889460
1972800021
95428375
499526864
442478332
895425015
628879659
1832628168
1861914733
1325928284
1687581575
1075654276
1568298891
695390670
1339243650
1704595356
368558617
1451569279
392483007
1669829945
1879896487
1511347102
1682888632
191803641
175434457
600503122
1831763051
827587047
1274185667
362123131
30515973
936406540
276857421
1959704505
1061827321
1252077008
1323031101
1941947054
1898335652
747151548
484535652
1036614301
1006867715
1709446589
667191015
4544939
256706838
1111877212
1976702510
1626584971
933715031
1302917556
323738312
1681800171
208428701
279904232
1009136860
1074996089
1679086110
712834184
475353950
1604966237
367487637
1839999206
1289567208
1681045151
1315004353
1956721645
455495958
1868737737
733150142
75148370
720521161
1170448536
563055949
1844510916
926307174
962566930
1943932796
581248169
379086503
1803533106
633869515
1913581900
631816904
649562681
1870931
780511383
997736353
167543520
580055137
1990344688
703956810
746243131
277378845
1848856487
633816777
712317458
1668317298
1388760552
1461550232
179368731
1750403229
1358940698
1761605953
1570295404
1347418206
1230161135
869011594
1692221441
274423136
697848703
1429464897
1420847634
1314985473
243699401
1115672948
1679347254
1957993220
1102598271
940132322
729417334
947756953
214645177
906959137
416216746
236898758
1010498472
1321006449
1334953998
561198735
1324295307
1923868383
762782998
1728334758
982981866
469883681
763039994
331063743
1340861992
1315351748
1752643400
1630631790
707711157
330150506
1555206203
35524044
733626183
19018758
322274943
1551388772
1359852841
1137865390
1430591527
913207434
1658324769
1296604468
1827719406
965771035
1591270748
1455139462
397692055
1528448731
744382843
424787607
245603927
985818281
1376193578
1173650668
1402519937
218605931
465068256
1115368124
102015416
376767658
1087243488
33955717
1054020618
1325812545
901685194
690184203
747687357
1852160042
617788049
1865562804
746297169
1976349037
760089084
1965640694
12318557
901977489
603306810
616238728
220462659
1280731087
298138708
1668157124
1301327598
1358716815
859009361
750597850
156047429
825898202
957144869
640186169
202590011
1911189417
13038524
1760341863
1436108718
513474061
1718640440
1503776846
855108876
1446662734
209024341
1515623783
475405061
1503207074
390675612
107593836
1697132927
1889132871
1058327061
788649725
1746809657
1538184282
900800027
740243413
629176878
1275243012
1606728363
292068628
654552370
1433212580
1986368117
1395871339
761184656
585618974
1145206385
842477388
440365901
1980333856
164108891
403079531
862165694
703690717
1389866450
1683019842
741584696
1573891030
1236413326
1655588889
313538939
1047691266
706977923
788845549
1365518236
1139057123
1009233435
272488202
1061666226
1808989240
1109122228
1263017309
1103247784
403236345
894247583
1598711118
1375202313
162500456
1555032583
1183478638
1050127961
1865204695
730354373
373216409
749789705
683598952
968626783
1204812799
330736911
770067163
1679233799
1810351887
568241897
1328621666
766892890
794823916
850736401
441851108
1561375316
1311571336
1993870265
228632088
870521559
26501925
1568457331
214718386
224008584
1024869259
1651653184
370911193
446750100
445832045
681889374
1179200889
1505849301
345602720
1698142794
1343437717
590699697
1902055360
1458260454
6945532
392422635
1913092558
146478276
952216853
1591899783
1262664121
1067141656
1806508809
646642511
1225438053
989965404
1382111097
747387651
47194308
824223821
1326852087
236330081
280170099
1420045818
37393762
1038828415
1608138137
1210218602
231137051
1989408526
1123420431
393962956
793200121
1040097057
1359567540
1656661164
384143970
570975142
1060503257
1363904937
129691865
1141559257
1279695773
20742681
299438374
1934173776
1024525023
980911870
1698760064
1488542440
1082983713
1936820023
688132341
845008770
914220604
833562740
1618160184
100450704
834945832
1662069141
1454648524
1259363853
1034385473
645225017
1775447409
1717585467
40747656
1999418868
1063671363
1905075715
1765656118
1678149660
272315906
334742663
1922550913
1522266645
1682740233
254569609
1542002111
49290061
221010788
838626672
1775958678
1823065136
976355735
1541410437
72892348
594436078
1501673174
921867235
1846308465
795807671
1648709442
527556805
1081051276
239503830
1916114375
43322414
1474231735
1660394753
803375479
1560853925
814202426
716819543
1524062995
1790426303
296500851
1187823370
1596966158
1683144903
1575447970
1652435190
905446945
1151824594
1266395775
276141051
1593638393
526723109
1619107672
337350487
957211384
748555497
1002007654
1002475636
1353318609
378164257
1419008266
281801684
1194441101
318460881
1777032426
1503555689
1266576216
1264081544
53526302
1167935098
778997703
1266478902
448726388
899313664
1634289629
1230738871
1733080051
1318023127
179586521
983244547
1707575621
45822677
238363001
1303714424
19643494
1939256263
130668923
305790173
1693152985
1293299272
1673276301
1585698829
498579906
876691122
1029316647
1516461103
400641475
34314647
376185356
1691466963
67607454
370073040
360206587
1318838103
181872465
368325908
1920559491
1123768653
1658859924
747179898
1440124980
1771585269
1388581019
1831266891
920723027
913565808
1705161713
1351941957
282145844
1304958547
1632709231
1597074818
142160704
263592526
1974743703
1383514094
842119507
179624530
1542921249
1961278274
1828074842
719456873
1687730669
944046284
815725706
629537197
981225189
1796052886
1534903102
1562271049
339660156
816123419
1293624022
900126550
205325658
856812887
1056311818
1625917214
1974397775
1652723187
1423255070
1715631866
1358779115
1151754294
1067846021
127555406
1079437286
356090426
1015811759
1207747426
1985826019
1966283894
203141760
412760718
809695441
426973292
1164225575
1927112330
1164543999
1369619715
625762567
1603812269
347269875
880041184
895652249
1750976021
1463189676
1813031399
952799658
1358825646
313224160
45808655
919807203
1997783316
1013395659
540603196
1700564095
530445412
771811487
1409159297
920424585
761562391
1459686282
623381981
979096738
692503784
1895307590
1747097717
1682251931
1553495941
64007596
1609077879
406068220
1119192128
1391293077
73967184
962021884
1020225817
1174079315
746063890
1159598817
823570347
1475248791
305321949
1273293921
683457783
1949007673
683448041
427531892
914417226
1800454350
191734881
1015322001
1576494874
1617411895
243072026
1483545614
1158260585
1780659332
1074963385
1420470990
825733889
995739995
1323898569
1610039666
1475274168
1715751605
1891976159
756794759
423025899
1638325521
841691084
1248053632
378906814
249205798
391042543
1580930628
1059035510
322693738
1732126657
548556171
1316733063
1073792079
1998168879
1862606589
560777456
1059974323
1070136181
1816412881
252226098
223202275
1645592904
1005701125
561873756
1661602857
1194293778
1609051769
1670685430
954596805
692139293
1421450403
256552059
228489926
79082467
1737992705
1833774804
890894780
444610205
886610564
1863208770
1800310877
1892159140
1034802553
485940393
1394935049
1331346959
641883692
789666835
1645493719
150871011
237501032
1688567355
1440133077
1260383863
1183037300
729207312
809362627
621921398
296001456
1518685289
786071829
888165104
1374027237
1883690931
12597281
1491240343
1282714270
849186778
462535875
1520298831
611240467
509722200
228018058
1325501568
792029093
332379756
593466809
947324631
1979214170
1245527856
1980235047
359028779
723830659
1506572746
1478627968
267312462
483974392
1857590804
497198492
1772378889
280561799
523410245
654337013
1662685403
933787269
919683986
1051914371
1460413681
1174938741
1413890696
184129096
1698456805
1050227599
1747865307
1712201788
1597051388
1777612263
609555471
1237507488
899967580
380900379
1526708612
1315489176
1996896611
283621447
613191206
1833055534
883123953
1580110970
1946126432
72671127
33551991
1637189317
1884695930
270993334
369821931
946655154
1813628676
1937391783
465182031
665445410
188202865
1720342913
776275647
1999213015
873873636
1647483995
831317343
496126360
227264920
1258711597
151848191
1372578505
1480226477
1659546879
987334338
1207299242
1255558079
1097345418
111045666
1787326710
536023493
1650156017
1374112965
140937333
40703863
369876457
1740651751
1994698843
555094646
1134475243
746809136
28295279
508766055
1336923491
466682191
516860011
1092605078
153013866
1336088824
1098286026
70885769
677183228
1455678679
1269342230
1586980020
971932721
957110559
42528206
1155050127
1473082626
878086250
1926348871
214472211
900888776
1897021818
1646598078
407819845
342520251
1141158821
1463291946
39853232
1204098229
1467888144
967090402
1652861957
1617134578
1047616882
95210668
38517760
298344361
900473802
253606638
1741111435
178885927
168839853
480270323
1593252955
757461933
1995005689
783232592
576252642
7983848
1337146486
1979583091
1558428665
1798670788
1890828040
873806866
1829769278
1209327601
1934085146
844178041
619616106
1931482788
377358628
1674538918
256979133
989399328
1078240529
174043040
1031298372
731978524
936590054
1318314869
1092307101
218847371
1755532922
1212697441
961887164
1761518256
632823295
1532606576
1427629354
1614998080
1068155072
1156381746
640928000
1535274501
1724176667
271431764
1513757455
1318536501
1723536353
337598435
1936097222
356977498
673140085
486941056
575404082
483112869
1609293343
132455681
1504132160
518781097
1257687735
1414478209
405603646
1177887781
734700107
341895696
192725602
1122489494
222459086
1091170968
1355223901
563013663
752428090
1899861984
1817741500
565351010
892607996
1461562640
671461312
346611921
295026693
1979264455
1555575411
1239565956
369960538
1815459347
909853097
1260649920
1655384664
1057001556
313183054
1636259160
1002247858
748616827
1581919333
132810074
1650949036
1493211249
986611061
1760018500
818051863
1261890516
1991351772
1458455755
1233844311
952646269
1103844633
1552646050
1136129634
1400861090
1061904934
266054102
9437320
1481805011
581905108
1181392330
541292649
1236364387
1188088107
1597580207
207632967
1207978585
914075069
1891179446
1986410523
1283793240
929761873
969516632
389304223
1862842206
1276009051
1782371041
1433307957
484636659
425293907
114539882
766520064
704506890
604156892
1632947507
555986940
1193973508
1421133284
861502934
676967258
464081645
120165926
1994840756
485808942
1165878510
1179551034
1457270434
280953898
392961502
1402177352
1203111691
1293892906
821217755
1084880875
213384254
1820461145
918695344
663024215
871682552
271855897
384304613
1208205372
648646095
3234090
697187594
285800145
1700257336
278323186
1326337176
1093900863
76766506
59290872
156885056
248161058
587419198
638386285
857437750
882415876
1664849957
1731788531
91439111
95129576
1816645270
414686317
993721809
332064962
1771304487
673845211
1023584492
1524929076
1788823021
1679851476
448537408
3379357
527418924
260380962
751457344
68756346
70268302
923755185
1748238180
1934479767
936186879
424938146
1832524587
908849062
1074200644
1703117086
711447723
1861561751
1000065772
1338579746
603387986
1250973614
1078531935
1925082560
565847987
422933128
1618360452
220917750
470682710
766720607
1856990609
75196959
15742424
999304028
1739535449
1960338469
1956374809
741945328
1638980582
186532114
136927626
715581602
1445943017
1385511075
915499463
150535929
1980753578
844254708
381853184
801281896
202381304
525096969
513791143
1663034527
1956072341
1903479950
1304408393
572866387
1001348908
296148188
1852861903
1729935301
1946153536
672160680
595511034
150674132
629670826
1177271076
1907477169
1445972817
738437845
422351983
599873555
1697498995
727158232
511665884
1363750996
1591715345
749955707
1925511514
1061843176
868608998
1416302285
53228062
1828306644
1680795916
1278252567
84812385
1132240915
193733965
620342651
1331762362
1885417379
29439069
860263586
1377736946
209039204
679823030
1936859969
397545120
674610025
144966107
300989779
1420142596
1584161779
692705922
1364915742
757340115
1337671282
232918071
1355367484
1093208044
1606616551
1247260242
1523187667
1678465718
1860649449
1851994765
1086318466
812101568
357592037
806797805
94089500
260422720
979072109
1109060621
135242440
1698591206
1445128375
1522503614
1713460989
18260528
1069282270
55810886
470054665
91224396
654622424
843816402
1236078814
922060182
1161284557
925490302
636613280
734092700
563509734
755236605
992278839
1299444726
1395954426
1157634252
172599770
819397393
1927371132
974363028
1510127275
1284668286
1528965217
311020506
807079666
93846914
376208468
1224676956
884263337
1750683625
1089321760
1290760605
546693822
679174090
1896755389
408141041
765300280
213421011
1726765679
1775514919
730834647
1700865164
589918443
713595677
39669666
137239963
296664104
191458467
1325092522
1659012041
1249712434
959282380
1746360463
1193567812
1061355626
356362760
548691794
411449551
928716708
937552647
19658236
774062500
215178855
257388716
1951974800
809111823
1420514044
94390507
473495698
1287670296
140223569
249132133
461127344
740306256
1262949952
415487711
251850607
1547738394
457377071
1421353176
354463268
729347723
606758044
147630697
216011087
451003208
1754698211
733440262
1801261824
595917725
1742273378
411112942
1791998531
892385491
1193740718
962026224
1357782792
1609359348
709385770
1114480315
1589757055
1359528652
1613348113
961643505
72992561
1281996601
825442119
1965314616
936429762
32673901
1395187701
788726983
505693882
370940886
1634276674
1447505351
87978715
1212372961
13274676
282155878
1370773667
1989167460
1683115858
310518853
668695873
1591550969
1859820969
432567476
1044659336
1378597488
1289721507
824712922
551649988
1982861767
676753643
1940186346
392074723
1309927109
1656220477
403733672
656826651
1580237720
485300924
486700712
1027113585
974248233
1330901313
715995131
577758966
1607966655
1572461247
638624506
774759330
1259901197
707086515
763642362
787356710
1403742225
1156420107
1045423356
1181381369
1417478272
356941599
1911016463
1562160265
630353622
1721865190
1603770611
1482589634
313131830
428281862
732195111
594373737
1030635086
556273024
264383525
1898589541
896163400
50451565
835894928
904135551
883088596
1982815554
991356505
155551797
1653310539
184141052
109961995
654168628
1704573366
1235179412
1839863114
635670389
61345215
648260759
951791328
1596008355
1539091103
